    function submitLogin(event){
        // const emailInputted = emailInput.current.value;
        // const passwordInputted = passwordInput.current.value;
        const employees = [employee1, employee2, employee3, employee4];
        for (var i = 0; i < this.ref.employees.length-1; i++){
            let {email, password} = this.ref.employees[i];
            if (this.ref.emailInput === email && this.ref.passwordInput === password){
                    // this.props.history.push('/wedding/' + id);
                    console.log("Yes!");
                    alert("Yes!!");
                }
            }
            alert("Invalid Login");
        }
-----------------------------------------------------------------------------------


function Employee(id, fname, lname, email, password) {
    this.id = id;
    this.fname = fname;
    this.lname = lname;
    this.email = email;
    this.password = password;
}
const employee1 = new Employee(1, "Anthony", "Renwick", "deathstroke99@aol.com", 9900);
const employee2 = new Employee(2, "Phong", "Vo", "stargate99@aol.com", 4434);
const employee3 = new Employee(3, "Camden", "Synder", "starwars99@aol.com", 5565);
const employee4 = new Employee(4, "Josh", "Forcier", "chillblaine99@aol.com", 8898);

const employees = [employee1, employee2, employee3, employee4];