// if (emailInputted === employee1.email && passwordInputted === employee1.password){
        //     alert('Success!!');
        //     window.location.href('../components/Wedding.jsx');
        //     // save info into Local storage
        //     // Look into Router - Link, and route to the page I need to get to
        // } else if (emailInputted === employee2.email && passwordInputted === employee2.password){
        //     alert('Success!!');
        //     window.location.href('../components/Wedding.jsx');
        // } else if (emailInputted === employee3.email && passwordInputted === employee3.password){
        //     alert('Success!!');
        //     window.location.href('../components/Wedding.jsx');
        // } else if (emailInputted === employee4.email && passwordInputted === employee4.password){
        //     alert('Success!!');
        //     window.location.href('../components/Wedding.jsx');
        // }else {
        //     alert('Invalid Login');
        // }


function Employee(id, fname, lname, email, password) {
        this.id = id;
        this.fname = fname;
        this.lname = lname;
        this.email = email;
        this.password = password;
    }
    const employee1 = new Employee(1, "Anthony", "Renwick", "deathstroke99@aol.com", "hello");
    const employee2 = new Employee(2, "Phong", "Vo", "stargate99@aol.com", "goodbye");
    const employee3 = new Employee(3, "Camden", "Snyder", "starwars99@aol.com", "bonjour");
    const employee4 = new Employee(4, "Josh", "Forcier", "chillblaine99@aol.com", "gutentag");